%YAML 1.1
%TAG !u! tag:unity3d.com,2011:
--- !u!1045 &1
EditorBuildSettings:
  m_ObjectHideFlags: 0
  serializedVersion: 2
  m_Scenes:
  - enabled: 1
    path: Assets/Scenes/PreMain.unity
    guid: ef6bb1c491799ea4694dcbd3fcf30a44
  - enabled: 1
    path: Assets/Scenes/MainMenu.unity
    guid: 6947fdfa34194ef4097ce7cf4b0b1b8c
  - enabled: 1
    path: Assets/Scenes/Level 1.unity
    guid: 9ab5b278df59c5e48bb94eb103f74aae
  - enabled: 1
    path: Assets/Scenes/Level 2.unity
    guid: 2bb35e70c1b337e4fbdb467a1a2081f5
  - enabled: 1
    path: Assets/Scenes/Level 3.unity
    guid: f55f42c67e4f57c47883950f7cdcac7e
  - enabled: 1
    path: Assets/Scenes/Level 4.unity
    guid: 9da0e8bac250364408f6ac4b7f9ea75a
  - enabled: 1
    path: Assets/Scenes/Level 5.unity
    guid: 9e236fa5188b39d48981d2bd669ac953
  - enabled: 1
    path: Assets/Scenes/Level 6.unity
    guid: 5ad473beb33f84d4daed5f598774efa5
  - enabled: 1
    path: Assets/Scenes/Sandbox.unity
    guid: 2cda990e2423bbf4892e6590ba056729
  m_configObjects: {}
